%YAML 1.1
%TAG !u! tag:unity3d.com,2011:
--- !u!114 &11400000
MonoBehaviour:
  m_ObjectHideFlags: 0
  m_CorrespondingSourceObject: {fileID: 0}
  m_PrefabInstance: {fileID: 0}
  m_PrefabAsset: {fileID: 0}
  m_GameObject: {fileID: 0}
  m_Enabled: 1
  m_EditorHideFlags: 0
  m_Script: {fileID: 11500000, guid: 2f6b90adab2b6714bb5fb70a8ef0771b, type: 3}
  m_Name: WorkbenchModel
  m_EditorClassIdentifier: 
  workbench:
  - id: tomato
    model: {fileID: 2899679949291891825, guid: cf7bd98f9c19f8c459f85faac081dc6a, type: 3}
  - id: market
    model: {fileID: 6326977325735825261, guid: 39ecbd1fef187274cbd4b22c1a7b3172, type: 3}
  - id: cashier
    model: {fileID: 7251420460142169380, guid: 994bc0f7fe28b7b498a8feb47965bef9, type: 3}
  - id: building
    model: {fileID: 785916018638889973, guid: 492ac06e935f95d47a2736a4d4447611, type: 3}
